…
    ##  [1] 0.0000000000 0.0002588246 0.0013975813 0.0036678869 0.0071529696 0.0118380540 0.0176363962 0.0244032620 0.0319447157 0.0400236885 0.0483644388 0.0566559804 0.0645548090 0.0716871279 0.0776507043
    ## [16] 0.0820164439 0.0843297469 0.0841116891 0.0808600615 0.0740502952 0.0631362879 0.0475511509 0.0267078853 0.0000000000

``` r
# Now we sample our hours variable using probabilities from beta(3.5,2)
surveyHour <- sample(timeHours, size = 1000, replace = TRUE, prob = prob_vals)
surveyHour %>% 
  as_tibble() %>% 
  count(value)
```

    ## # A tibble: 21 × 2
    ##    value     n
    ##    <int> <int>
    ##  1     2     1
    ##  2     3     2
    ##  3     4     7
    ##  4     5    17
    ##  5     6    18
    ##  6     7    22
    ##  7     8    24
    ##  8     9    49
    ##  9    10    51
    ## 10    11    61
    ## # ℹ 11 more rows
…
